…
Using left\_join()

``` r
left_join(gapminder, country_currency, by = "country")
```

    ## # A tibble: 1,704 x 7
    ##        country continent  year lifeExp      pop gdpPercap Currency
    ##         <fctr>    <fctr> <int>   <dbl>    <int>     <dbl>   <fctr>
    ##  1 Afghanistan      Asia  1952  28.801  8425333  779.4453      AFN
    ##  2 Afghanistan      Asia  1957  30.332  9240934  820.8530      AFN
    ##  3 Afghanistan      Asia  1962  31.997 10267083  853.1007      AFN
    ##  4 Afghanistan      Asia  1967  34.020 11537966  836.1971      AFN
    ##  5 Afghanistan      Asia  1972  36.088 13079460  739.9811      AFN
    ##  6 Afghanistan      Asia  1977  38.438 14880372  786.1134      AFN
    ##  7 Afghanistan      Asia  1982  39.854 12881816  978.0114      AFN
    ##  8 Afghanistan      Asia  1987  40.822 13867957  852.3959      AFN
    ##  9 Afghanistan      Asia  1992  41.674 16317921  649.3414      AFN
    ## 10 Afghanistan      Asia  1997  41.763 22227415  635.3414      AFN
    ## # ... with 1,694 more rows

Using inner\_join()

``` r
inner_join(gapminder, country_currency, by = "country") 
```

    ## # A tibble: 120 x 7
    ##        country continent  year lifeExp      pop gdpPercap Currency
    ##         <fctr>    <fctr> <int>   <dbl>    <int>     <dbl>   <fctr>
    ##  1 Afghanistan      Asia  1952  28.801  8425333  779.4453      AFN
    ##  2 Afghanistan      Asia  1957  30.332  9240934  820.8530      AFN
    ##  3 Afghanistan      Asia  1962  31.997 10267083  853.1007      AFN
    ##  4 Afghanistan      Asia  1967  34.020 11537966  836.1971      AFN
    ##  5 Afghanistan      Asia  1972  36.088 13079460  739.9811      AFN
    ##  6 Afghanistan      Asia  1977  38.438 14880372  786.1134      AFN
    ##  7 Afghanistan      Asia  1982  39.854 12881816  978.0114      AFN
    ##  8 Afghanistan      Asia  1987  40.822 13867957  852.3959      AFN
    ##  9 Afghanistan      Asia  1992  41.674 16317921  649.3414      AFN
    ## 10 Afghanistan      Asia  1997  41.763 22227415  635.3414      AFN
    ## # ... with 110 more rows
…
Using anti\_join()

``` r
anti_join(gapminder, country_currency, by = "country")
```

    ## # A tibble: 1,584 x 6
    ##    country continent  year lifeExp     pop gdpPercap
    ##     <fctr>    <fctr> <int>   <dbl>   <int>     <dbl>
    ##  1   Benin    Africa  1952  38.223 1738315 1062.7522
    ##  2   Benin    Africa  1957  40.358 1925173  959.6011
    ##  3   Benin    Africa  1962  42.618 2151895  949.4991
    ##  4   Benin    Africa  1967  44.885 2427334 1035.8314
    ##  5   Benin    Africa  1972  47.014 2761407 1085.7969
    ##  6   Benin    Africa  1977  49.190 3168267 1029.1613
    ##  7   Benin    Africa  1982  50.904 3641603 1277.8976
    ##  8   Benin    Africa  1987  52.337 4243788 1225.8560
    ##  9   Benin    Africa  1992  53.919 4981671 1191.2077
    ## 10   Benin    Africa  1997  54.777 6066080 1232.9753
    ## # ... with 1,574 more rows

Using semi\_join()

``` r
semi_join(gapminder, country_currency, by = "country")
```

    ## # A tibble: 120 x 6
    ##        country continent  year lifeExp      pop gdpPercap
    ##         <fctr>    <fctr> <int>   <dbl>    <int>     <dbl>
    ##  1 Afghanistan      Asia  1952  28.801  8425333  779.4453
    ##  2 Afghanistan      Asia  1957  30.332  9240934  820.8530
    ##  3 Afghanistan      Asia  1962  31.997 10267083  853.1007
    ##  4 Afghanistan      Asia  1967  34.020 11537966  836.1971
    ##  5 Afghanistan      Asia  1972  36.088 13079460  739.9811
    ##  6 Afghanistan      Asia  1977  38.438 14880372  786.1134
    ##  7 Afghanistan      Asia  1982  39.854 12881816  978.0114
    ##  8 Afghanistan      Asia  1987  40.822 13867957  852.3959
    ##  9 Afghanistan      Asia  1992  41.674 16317921  649.3414
    ## 10 Afghanistan      Asia  1997  41.763 22227415  635.3414
    ## # ... with 110 more rows

Using full\_join()

``` r
full_join(gapminder, country_currency, by = "country")
```

    ## # A tibble: 1,704 x 7
    ##        country continent  year lifeExp      pop gdpPercap Currency
    ##         <fctr>    <fctr> <int>   <dbl>    <int>     <dbl>   <fctr>
    ##  1 Afghanistan      Asia  1952  28.801  8425333  779.4453      AFN
    ##  2 Afghanistan      Asia  1957  30.332  9240934  820.8530      AFN
    ##  3 Afghanistan      Asia  1962  31.997 10267083  853.1007      AFN
    ##  4 Afghanistan      Asia  1967  34.020 11537966  836.1971      AFN
    ##  5 Afghanistan      Asia  1972  36.088 13079460  739.9811      AFN
    ##  6 Afghanistan      Asia  1977  38.438 14880372  786.1134      AFN
    ##  7 Afghanistan      Asia  1982  39.854 12881816  978.0114      AFN
    ##  8 Afghanistan      Asia  1987  40.822 13867957  852.3959      AFN
    ##  9 Afghanistan      Asia  1992  41.674 16317921  649.3414      AFN
    ## 10 Afghanistan      Asia  1997  41.763 22227415  635.3414      AFN
    ## # ... with 1,694 more rows
